Tables and DataFrames | DimensionalData
…
Converting to DataFrame ​
array defaultstack defaultlayersfrommergedims
Arrays will have columns for each dimension, and only one data column
julia
julia> DataFrame(A)

2600×4 DataFrame
  Row │ X      Y      category  data
      │ Int64  Int64  Char      Float64
──────┼───────────────────────────────────
    1 │     1      1  a         0.502799
    2 │     2      1  a         0.375325
    3 │     3      1  a         0.555568
    4 │     4      1  a         0.431864
    5 │     5      1  a         0.436907
    6 │     6      1  a         0.69398
    7 │     7      1  a         0.181894
    8 │     8      1  a         0.0242166
  ⋮   │   ⋮      ⋮       ⋮          ⋮
 2594 │     4     10  z         0.87812
 2595 │     5     10  z         0.531018
 2596 │     6     10  z         0.597937
 2597 │     7     10  z         0.255261
 2598 │     8     10  z         0.814288
 2599 │     9     10  z         0.853191
 2600 │    10     10  z         0.121316
                         2585 rows omitted
…
