Tables and DataFrames | DimensionalData.jl
…
Converting to DataFrame ​
array defaultstack defaultlayersfrommergedims
Arrays will have columns for each dimension, and only one data column
julia
julia> DataFrame(A)

2600×4 DataFrame
  Row │ X      Y      category  data
      │ Int64  Int64  Char      Float64
──────┼───────────────────────────────────
    1 │     1      1  a         0.900862
    2 │     2      1  a         0.62226
    3 │     3      1  a         0.465398
    4 │     4      1  a         0.883138
    5 │     5      1  a         0.804913
    6 │     6      1  a         0.533884
    7 │     7      1  a         0.0348174
    8 │     8      1  a         0.130996
  ⋮   │   ⋮      ⋮       ⋮          ⋮
 2594 │     4     10  z         0.367421
 2595 │     5     10  z         0.180997
 2596 │     6     10  z         0.897092
 2597 │     7     10  z         0.321961
 2598 │     8     10  z         0.274222
 2599 │     9     10  z         0.807982
 2600 │    10     10  z         0.43614
                         2585 rows omitted
…
