Tables and DataFrames | DimensionalData.jl
…
Converting to DataFrame ​
array defaultstack defaultlayersfrommergedims
Arrays will have columns for each dimension, and only one data column
julia
julia> DataFrame(A)

2600×4 DataFrame
  Row │ X      Y      category  data
      │ Int64  Int64  Char      Float64
──────┼──────────────────────────────────
    1 │     1      1  a         0.470268
    2 │     2      1  a         0.879138
    3 │     3      1  a         0.592516
    4 │     4      1  a         0.267772
    5 │     5      1  a         0.911425
    6 │     6      1  a         0.951677
    7 │     7      1  a         0.611447
    8 │     8      1  a         0.553796
  ⋮   │   ⋮      ⋮       ⋮         ⋮
 2594 │     4     10  z         0.538464
 2595 │     5     10  z         0.881027
 2596 │     6     10  z         0.311116
 2597 │     7     10  z         0.100898
 2598 │     8     10  z         0.802703
 2599 │     9     10  z         0.977354
 2600 │    10     10  z         0.959202
                        2585 rows omitted
…
