Tables and DataFrames | DimensionalData.jl
…
Converting to DataFrame ​
array defaultstack defaultlayersfrommergedims
Arrays will have columns for each dimension, and only one data column
julia
julia> DataFrame(A)

2600×4 DataFrame
  Row │ X      Y      category  data
      │ Int64  Int64  Char      Float64
──────┼──────────────────────────────────
    1 │     1      1  a         0.921958
    2 │     2      1  a         0.449491
    3 │     3      1  a         0.581131
    4 │     4      1  a         0.194849
    5 │     5      1  a         0.364097
    6 │     6      1  a         0.022593
    7 │     7      1  a         0.191934
    8 │     8      1  a         0.450701
  ⋮   │   ⋮      ⋮       ⋮         ⋮
 2594 │     4     10  z         0.236866
 2595 │     5     10  z         0.894053
 2596 │     6     10  z         0.350024
 2597 │     7     10  z         0.417756
 2598 │     8     10  z         0.125477
 2599 │     9     10  z         0.599789
 2600 │    10     10  z         0.363373
                        2585 rows omitted
…
